…
    ## The following objects are masked from 'package:base':
    ## 
    ##     intersect, setdiff, setequal, union

    dt_omit <- dt %>% na.omit()

删除重复行

    dt_repeat <- dt_omit %>% distinct(.keep_all = T)

删除某列中值为NaN的行

    dt_repeat

    ## # A tibble: 428 × 5
    ##    image_id index ID       label      detection
    ##    <chr>    <chr> <chr>    <chr>      <chr>    
    ##  1 图像_01  1a    HS120597 HS120597_1 42       
    ##  2 图像_01  1b    HS120597 HS120597_2 52       
    ##  3 图像_01  1c    HS120597 HS120597_3 61       
    ##  4 图像_01  1d    HS120597 HS120597_4 60       
    ##  5 图像_01  1e    HS120597 HS120597_5 54       
    ##  6 图像_02  2a    HS120599 HS120599_1 210      
    ##  7 图像_02  2b    HS120599 HS120599_2 126      
    ##  8 图像_02  2c    HS120599 HS120599_3 162      
    ##  9 图像_02  2d    HS120599 HS120599_4 209      
    ## 10 图像_02  2e    HS120599 HS120599_5 146      
    ## # ℹ 418 more rows
…
